[
  {
    "title": "Lorem ipsum dolor sit amet, consectetur adipiscing elit.",
    "text": "Lorem ipsum dolor sit amet, consectetur adipiscing elit. Phasellus fermentum nisi sed porttitor tristique. Lorem ipsum dolor sit amet, consectetur adipiscing elit.",
    "members": ["JD", "MR", "SM", "TM", "LT", "JD", "JD", "MR", "SM", "TM", "LT", "JD"]
  },
  {
    "title": "Lorem ipsum dolor sit amet, consectetur adipiscing elit.",
    "text": "Lorem ipsum dolor sit amet, consectetur adipiscing elit. Phasellus fermentum nisi sed porttitor tristique. Lorem ipsum dolor sit amet, consectetur adipiscing elit.",
    "members": ["LT", "JD", "JD", "MR", "SM", "TM", "LT", "JD"]
  },
  {
    "title": "Lorem ipsum dolor sit amet, consectetur adipiscing elit.",
    "text": "Lorem ipsum dolor sit amet, consectetur adipiscing elit. Phasellus fermentum nisi sed porttitor tristique. Lorem ipsum dolor sit amet, consectetur adipiscing elit.",
    "members": ["JD", "LT", "JD"]
  },
  {
    "title": "Lorem ipsum dolor sit amet, consectetur adipiscing elit.",
    "text": "Lorem ipsum dolor sit amet, consectetur adipiscing elit. Phasellus fermentum nisi sed porttitor tristique. Lorem ipsum dolor sit amet, consectetur adipiscing elit.",
    "members": ["MR", "SM", "TM", "LT", "JD"]
  },
  {
    "title": "Lorem ipsum dolor sit amet, consectetur adipiscing elit.",
    "text": "Lorem ipsum dolor sit amet, consectetur adipiscing elit. Phasellus fermentum nisi sed porttitor tristique. Lorem ipsum dolor sit amet, consectetur adipiscing elit.",
    "members": ["MR", "SM", "JD", "MR", "LT", "JD"]
  }

]